[
    {
    "id": 1,
    "tipoArticulo": "Corto",
    "nombreArticulo": "Artículo 1",
    "fecha": "2015 ",
    "revista": "Revista 1",
    "issnRevista": "4546-7777",
    "estado": "Sin medir",
    "volumen": "v1",
    "numero": "n1",
    "resumen": "Resumen abc"},


    {
    "id": 2,
    "tipoArticulo": "Completo",
    "nombreArticulo": "Artículo 2",
    "fecha": "2015",
    "revista": "Revista 2",
    "issnRevista": "1232-1231",
    "estado": "ART_A1",
    "volumen": "v2",
    "numero": "n2",
    "resumen": "Resumen abc"},
    
    {
    "id": 3,
    "tipoArticulo": "Completo",
    "nombreArticulo": "Artículo 3",
    "fecha": "2015",
    "revista": "Revista 3",
    "issnRevista": "1232-1231",
    "estado": "ART_A1",
    "volumen": "v3",
    "numero": "n3",
    "resumen": "Resumen abc"},

    {
    "id": 4,
    "tipoArticulo": "Corto",
    "nombreArticulo": "Artículo 4",
    "fecha": "2017",
    "revista": "Revista 4",
    "issnRevista": "3243-3243",
    "estado": "ART_B",
    "volumen": "v4",
    "numero": "n4",
    "resumen": "Resumen abc"}    
  ]